…
```r
dataCombin%>%
  group_by(vial)%>%
  filter(time<1000)%>%
  filter(treatment==1)
```

```
## # A tibble: 40 x 19
## # Groups:   vial [7]
##    trial treatment vial   temp  time phase round salinity.... pressure..inHg.
##    <chr>     <dbl> <chr> <dbl> <dbl> <dbl> <int>        <dbl>           <dbl>
##  1 2a            1 1      14.2    35  31.4     1         37.5            30.2
##  2 2a            1 1      14.2    35  31.4     1         37.5            30.2
##  3 2a            1 7      14.2   281  30.1     1         37.5            30.2
##  4 2a            1 7      14.2   281  30.1     1         37.5            30.2
##  5 2a            1 6      14.2   248  30.1     1         37.5            30.2
##  6 2a            1 2      14.2   433  37.5     2         37.5            30.2
##  7 2a            1 2      14.2   433  37.5     2         37.5            30.2
##  8 2a            1 1      14.2   337  32.3     2         37.5            30.2
##  9 2a            1 5      14.2   205  30.6     1         37.5            30.2
## 10 2a            1 5      14.2   205  30.6     1         37.5            30.2
## # ... with 30 more rows, and 10 more variables: amplitude <chr>, day <int>,
## #   cal0 <dbl>, cal100 <dbl>, T0 <dbl>, T100 <dbl>, Salinity.... <dbl>,
## #   O2sat <dbl>, oxygen <dbl>, umoleO2 <dbl>
```
…
